              total        used        free      shared  buff/cache   available
Mem:            15G        3,0G         10G        477M        2,1G         11G
Swap:          7,8G          0B        7,8G
Total:          23G        3,0G         18G
